{
	"info": {
		"_postman_id": "4b9d7fd8-c9b8-4adf-b1f2-d26a9c450a37",
		"name": "Meli Mutants",
		"schema": "https://schema.getpostman.com/json/collection/v2.1.0/collection.json"
	},
	"item": [
		{
			"name": "IsMutant",
			"request": {
				"method": "POST",
				"header": [],
				"body": {
					"mode": "raw",
					"raw": "{\r\n    \"dna\": [\r\n        \"ATGCGA\",\r\n        \"CAGTGC\",\r\n        \"TTATGC\",\r\n        \"AGAAGG\",\r\n        \"CCCCTA\",\r\n        \"TCACTG\"\r\n    ]\r\n}",
					"options": {
						"raw": {
							"language": "json"
						}
					}
				},
				"url": {
					"raw": "https://4gxvefyr7g.execute-api.us-east-2.amazonaws.com/test/mutants",
					"protocol": "https",
					"host": [
						"4gxvefyr7g",
						"execute-api",
						"us-east-2",
						"amazonaws",
						"com"
					],
					"path": [
						"test",
						"mutants"
					]
				}
			},
			"response": [
				{
					"name": "True",
					"originalRequest": {
						"method": "POST",
						"header": [],
						"body": {
							"mode": "raw",
							"raw": "{\r\n    \"dna\": [\r\n        \"ATGCGA\",\r\n        \"CAGTGC\",\r\n        \"TTATGC\",\r\n        \"AGAAGG\",\r\n        \"CCCCTA\",\r\n        \"TCACTG\"\r\n    ]\r\n}",
							"options": {
								"raw": {
									"language": "json"
								}
							}
						},
						"url": {
							"raw": "https://4gxvefyr7g.execute-api.us-east-2.amazonaws.com/test/mutants",
							"protocol": "https",
							"host": [
								"4gxvefyr7g",
								"execute-api",
								"us-east-2",
								"amazonaws",
								"com"
							],
							"path": [
								"test",
								"mutants"
							]
						}
					},
					"status": "OK",
					"code": 200,
					"_postman_previewlanguage": "json",
					"header": [
						{
							"key": "Date",
							"value": "Sun, 19 Dec 2021 19:24:49 GMT"
						},
						{
							"key": "Content-Type",
							"value": "application/json"
						},
						{
							"key": "Content-Length",
							"value": "54"
						},
						{
							"key": "Connection",
							"value": "keep-alive"
						},
						{
							"key": "x-amzn-RequestId",
							"value": "9be4cbb7-5049-408e-b2fc-6395250d7750"
						},
						{
							"key": "Access-Control-Allow-Origin",
							"value": "*"
						},
						{
							"key": "Access-Control-Allow-Headers",
							"value": "Content-Type"
						},
						{
							"key": "x-amz-apigw-id",
							"value": "KnIH3HxJiYcF0Ng="
						},
						{
							"key": "Access-Control-Allow-Methods",
							"value": "OPTIONS,POST,GET"
						},
						{
							"key": "X-Amzn-Trace-Id",
							"value": "Root=1-61bf86fe-708631036b1ec30d75306fd9;Sampled=0"
						}
					],
					"cookie": [],
					"body": "{\n    \"result\": \"success\",\n    \"date\": \"2021-12-19T19:24:48.084Z\"\n}"
				},
				{
					"name": "False",
					"originalRequest": {
						"method": "POST",
						"header": [],
						"body": {
							"mode": "raw",
							"raw": "{\r\n    \"dna\": [\r\n        \"ATGCGA\",\r\n        \"CAGTGC\",\r\n        \"TTATGC\",\r\n        \"AGAAGG\",\r\n        \"CCCCTA\",\r\n        \"TCACTG\"\r\n    ]\r\n}",
							"options": {
								"raw": {
									"language": "json"
								}
							}
						},
						"url": {
							"raw": "https://4gxvefyr7g.execute-api.us-east-2.amazonaws.com/test/mutants",
							"protocol": "https",
							"host": [
								"4gxvefyr7g",
								"execute-api",
								"us-east-2",
								"amazonaws",
								"com"
							],
							"path": [
								"test",
								"mutants"
							]
						}
					},
					"status": "Forbidden",
					"code": 403,
					"_postman_previewlanguage": "json",
					"header": [
						{
							"key": "Date",
							"value": "Sun, 19 Dec 2021 19:24:49 GMT"
						},
						{
							"key": "Content-Type",
							"value": "application/json"
						},
						{
							"key": "Content-Length",
							"value": "54"
						},
						{
							"key": "Connection",
							"value": "keep-alive"
						},
						{
							"key": "x-amzn-RequestId",
							"value": "9be4cbb7-5049-408e-b2fc-6395250d7750"
						},
						{
							"key": "Access-Control-Allow-Origin",
							"value": "*"
						},
						{
							"key": "Access-Control-Allow-Headers",
							"value": "Content-Type"
						},
						{
							"key": "x-amz-apigw-id",
							"value": "KnIH3HxJiYcF0Ng="
						},
						{
							"key": "Access-Control-Allow-Methods",
							"value": "OPTIONS,POST,GET"
						},
						{
							"key": "X-Amzn-Trace-Id",
							"value": "Root=1-61bf86fe-708631036b1ec30d75306fd9;Sampled=0"
						}
					],
					"cookie": [],
					"body": "{\n    \"result\": \"success\",\n    \"date\": \"2021-12-19T19:24:48.084Z\"\n}"
				}
			]
		}
	]
}